8_bit_counter/result/dump.vcd
$date
Thu Dec 28 04:36:11 2023
$end
$version
Riviera-PRO Version 2022.04.117.8517
$end
$timescale
1 ns
$end

$scope module tb $end

$scope module vif $end
$var reg 1 ! clk $end
$var reg 1 " rst $end
$var reg 1 # up $end
$var reg 1 $ load $end
$var reg 8 % loadin [7:0] $end
$var reg 8 & y [7:0] $end
$upscope $end


$scope module dut $end
$var wire 1 ' clk $end
$var wire 1 ( rst $end
$var wire 1 ) up $end
$var wire 1 * load $end
$var wire 8 + loadin [7:0] $end
$var reg 8 , y [7:0] $end
$upscope $end

$upscope $end

$enddefinitions $end
$dumpvars
0!
1"
x#
x$
b101010 %
bx &
0'
1(
x)
x*
b101010 +
bx ,
$end
#5
1!
1'
b0 ,
b10000 %
b0 &
b10000 +
#10
0!
0'
#15
1!
1'
b10000010 %
b10000010 +
#20
0!
0'
#25
1!
1'
b1111000 %
b1111000 +
#30
0!
0'
#35
1!
1'
b10100011 %
b10100011 +
#40
0!
0'
#45
1!
1'
b10101000 %
b10101000 +
#50
0"
1$
1#
0!
0'
1)
1*
0(
#55
1!
1'
b10101000 ,
b110011 %
b10101000 &
b110011 +
#60
0$
0!
0'
0*
#65
1!
1'
b10101001 ,
b11000101 %
b10101001 &
b11000101 +
#70
0!
0'
#75
1!
1'
b10101010 ,
b1101000 %
b10101010 &
b1101000 +
#80
0!
0'
#85
1!
1'
b10101011 ,
b11010001 %
b10101011 &
b11010001 +
#90
0!
0'
#95
1!
1'
b10101100 ,
b101010 %
b10101100 &
b101010 +
#100
0!
0'
#105
1!
1'
b10101101 ,
b11011110 %
b10101101 &
b11011110 +
#110
0!
0'
#115
1!
1'
b10101110 ,
b101111 %
b10101110 &
b101111 +
#120
0#
0!
0'
0)
#125
1!
1'
b10101101 ,
b11011101 %
b10101101 &
b11011101 +
#130
0!
0'
#135
1!
1'
b10101100 ,
b11101010 %
b10101100 &
b11101010 +
#140
0!
0'
#145
1!
1'
b10101011 ,
b11010001 %
b10101011 &
b11010001 +
#150
0!
0'
#155
1!
1'
b10101010 ,
b1111110 %
b10101010 &
b1111110 +
#160
1$
0!
0'
1*
#165
1!
1'
b1111110 ,
b1110001 %
b1111110 &
b1110001 +
#170
0$
0!
0'
0*
#175
1!
1'
b1111101 ,
b10100 %
b1111101 &
b10100 +
#180
0!
0'
#185
1!
1'
b1111100 ,
b1111101 %
b1111100 &
b1111101 +
#190
1#
0!
0'
1)
#195
1!
1'
b1111101 ,
b1111101 &
#200
0!
0'
#205
1!
1'
b1111110 ,
b1111110 &
#210
0!
0'
#215
1!
1'
b1111111 ,
b1111111 &
#220
0!
0'
#225
1!
1'
b10000000 ,
b10000000 &
#230
0!
0'
#235
1!
1'
b10000001 ,
b10000001 &
#240
0!
0'
#245
1!
1'
b10000010 ,
b10000010 &
#250
0!
0'
#255
1!
1'
b10000011 ,
b10000011 &
#260
0#
0!
0'
0)
#265
1!
1'
b10000010 ,
b10000010 &
#270
1$
0!
0'
1*
#275
1!
1'
b1111101 ,
b1111101 &
#280
0$
0!
0'
0*
#285
1!
1'
b1111100 ,
b1111100 &
#290
0!
0'
#295
1!
1'
b1111011 ,
b1111011 &
#300
0!
0'
#305
1!
1'
b1111010 ,
b1111010 &
#310
0!
0'
#315
1!
1'
b1111001 ,
b1111001 &
#320
0!
0'
#325
1!
1'
b1111000 ,
b1111000 &
#330
1#
0!
0'
1)
#335
1!
1'
b1111001 ,
b1111001 &
#340
0!
0'
#345
1!
1'
b1111010 ,
b1111010 &
#350
0!
0'
#355
1!
1'
b1111011 ,
b1111011 &
#360
0!
0'
#365
1!
1'
b1111100 ,
b1111100 &
#370
0!
0'
#375
1!
1'
b1111101 ,
b1111101 &
#380
1$
0!
0'
1*
#385
1!
1'
#390
0$
0!
0'
0*
#395
1!
1'
b1111110 ,
b1111110 &
#400
0#
0!
0'
0)
#405
1!
1'
b1111101 ,
b1111101 &
#410
0!
0'
#415
1!
1'
b1111100 ,
b1111100 &
#420
0!
0'
#425
1!
1'
b1111011 ,
b1111011 &
#430
0!
0'
#435
1!
1'
b1111010 ,
b1111010 &
#440
0!
0'
#445
1!
1'
b1111001 ,
b1111001 &
#450
0!
0'
#455
1!
1'
b1111000 ,
b1111000 &
#460
0!
0'
#465
1!
1'
b1110111 ,
b1110111 &
#470
1#
0!
0'
1)
#475
1!
1'
b1111000 ,
b1111000 &
#480
0!
0'
#485
1!
1'
b1111001 ,
b1111001 &
#490
1$
0!
0'
1*
#495
1!
1'
b1111101 ,
b1111101 &
#500
0$
0!
0'
0*
#505
1!
1'
b1111110 ,
b1111110 &
#510
0!
0'
#515
1!
1'
b1111111 ,
b1111111 &
#520
0!
0'
#525
1!
1'
b10000000 ,
b10000000 &
#530
0!
0'
#535
1!
1'
b10000001 ,
b10000001 &
#540
0#
0!
0'
0)
#545
1!
1'
b10000000 ,
b10000000 &
#550
0!
0'
#555
1!
1'
b1111111 ,
b1111111 &
#560
0!
0'
#565
1!
1'
b1111110 ,
b1111110 &
#570
0!
0'
#575
1!
1'
b1111101 ,
b1111101 &
#580
0!
0'
#585
1!
1'
b1111100 ,
b1111100 &
#590
0!
0'
#595
1!
1'
b1111011 ,
b1111011 &
#600
1$
0!
0'
1*
#605
1!
1'
b1111101 ,
b1111101 &
#610
1#
0$
0!
0'
0*
1)
#615
1!
1'
b1111110 ,
b1111110 &
#620
0!
0'
#625
1!
1'
b1111111 ,
b1111111 &
#630
0!
0'
#635
1!
1'
b10000000 ,
b10000000 &
#640
0!
0'
#645
1!
1'
b10000001 ,
b10000001 &
#650
0!
0'
#655
1!
1'
b10000010 ,
b10000010 &
#660
0!
0'
#665
1!
1'
b10000011 ,
b10000011 &
#670
0!
0'
#675
1!
1'
b10000100 ,
b10000100 &
#680
0#
0!
0'
0)
#685
1!
1'
b10000011 ,
b10000011 &
#690
0!
0'
#695
1!
1'
b10000010 ,
b10000010 &
#700
0!
0'
#705
1!
1'
b10000001 ,
b10000001 &
#710
1$
0!
0'
1*
#715
1!
1'
b1111101 ,
b1111101 &
#720
0$
0!
0'
0*
#725
1!
1'
b1111100 ,
b1111100 &
#730
0!
0'
#735
1!
1'
b1111011 ,
b1111011 &
#740
0!
0'
#745
1!
1'
b1111010 ,
b1111010 &
#750
1#
0!
0'
1)
#755
1!
1'
b1111011 ,
b1111011 &
#760
0!
0'
#765
1!
1'
b1111100 ,
b1111100 &
#770
0!
0'
#775
1!
1'
b1111101 ,
b1111101 &
#780
0!
0'
#785
1!
1'
b1111110 ,
b1111110 &
#790
0!
0'
#795
1!
1'
b1111111 ,
b1111111 &
#800
0!
0'
#805
1!
1'
b10000000 ,
b10000000 &
#810
0!
0'
#815
1!
1'
b10000001 ,
b10000001 &
#820
1$
0#
0!
0'
0)
1*
#825
1!
1'
b1111101 ,
b1111101 &
#830
0$
0!
0'
0*
#835
1!
1'
b1111100 ,
b1111100 &
#840
0!
0'
#845
1!
1'
b1111011 ,
b1111011 &
#850
0!
0'
#855
1!
1'
b1111010 ,
b1111010 &
#860
0!
0'
#865
1!
1'
b1111001 ,
b1111001 &
#870
0!
0'
#875
1!
1'
b1111000 ,
b1111000 &
#880
0!
0'
#885
1!
1'
b1110111 ,
b1110111 &
#890
1#
0!
0'
1)
#895
1!
1'
b1111000 ,
b1111000 &
#900
0!
0'
#905
1!
1'
b1111001 ,
b1111001 &
#910
0!
0'
#915
1!
1'
b1111010 ,
b1111010 &
#920
0!
0'
#925
1!
1'
b1111011 ,
b1111011 &
#930
1$
0!
0'
1*
#935
1!
1'
b1111101 ,
b1111101 &
#940
0$
0!
0'
0*
#945
1!
1'
b1111110 ,
b1111110 &
#950
0!
0'
#955
1!
1'
b1111111 ,
b1111111 &
#960
0#
0!
0'
0)
#965
1!
1'
b1111110 ,
b1111110 &
#970
0!
0'
#975
1!
1'
b1111101 ,
b1111101 &
#980
0!
0'
#985
1!
1'
b1111100 ,
b1111100 &
#990
0!
0'
#995
1!
1'
b1111011 ,
b1111011 &
#1000
0!
0'
#1005
1!
1'
b1111010 ,
b1111010 &
#1010
0!
0'
#1015
1!
1'
b1111001 ,
b1111001 &
#1020
0!
0'
#1025
1!
1'
b1111000 ,
b1111000 &
#1030
1#
0!
0'
1)
#1035
1!
1'
b1111001 ,
b1111001 &
#1040
1$
0!
0'
1*
#1045
1!
1'
b1111101 ,
b1111101 &
#1050
0$
0!
0'
0*
#1055
1!
1'
b1111110 ,
b1111110 &
#1060
0!
0'
#1065
1!
1'
b1111111 ,
b1111111 &
#1070
0!
0'
#1075
1!
1'
b10000000 ,
b10000000 &
#1080
0!
0'
#1085
1!
1'
b10000001 ,
b10000001 &
#1090
0!
0'
#1095
1!
1'
b10000010 ,
b10000010 &
#1100
0#
0!
0'
0)
#1105
1!
1'
b10000001 ,
b10000001 &
#1110
0!
0'
#1115
1!
1'
b10000000 ,
b10000000 &
#1120
0!
0'
#1125
1!
1'
b1111111 ,
b1111111 &
#1130
0!
0'
#1135
1!
1'
b1111110 ,
b1111110 &
#1140
0!
0'
#1145
1!
1'
b1111101 ,
b1111101 &
#1150
1$
0!
0'
1*
#1155
1!
1'
#1160
0$
0!
0'
0*
#1165
1!
1'
b1111100 ,
b1111100 &
#1170
1#
0!
0'
1)
#1175
1!
1'
b1111101 ,
b1111101 &
#1180
0!
0'
#1185
1!
1'
b1111110 ,
b1111110 &
#1190
0!
0'
#1195
1!
1'
b1111111 ,
b1111111 &
#1200
0!
0'
#1205
1!
1'
b10000000 ,
b10000000 &
#1210
0!
0'
#1215
1!
1'
b10000001 ,
b10000001 &
#1220
0!
0'
#1225
1!
1'
b10000010 ,
b10000010 &
#1230
0!
0'
#1235
1!
1'
b10000011 ,
b10000011 &
#1240
0#
0!
0'
0)
#1245
1!
1'
b10000010 ,
b10000010 &
#1250
0!
0'
#1255
1!
1'
b10000001 ,
b10000001 &
#1260
1$
0!
0'
1*
#1265
1!
1'
b1111101 ,
b1111101 &
#1270
0$
0!
0'
0*
#1275
1!
1'
b1111100 ,
b1111100 &
#1280
0!
0'
#1285
1!
1'
b1111011 ,
b1111011 &
#1290
0!
0'
#1295
1!
1'
b1111010 ,
b1111010 &
#1300
0!
0'
#1305
1!
1'
b1111001 ,
b1111001 &
#1310
1#
0!
0'
1)
#1315
1!
1'
b1111010 ,
b1111010 &
#1320
0!
0'
#1325
1!
1'
b1111011 ,
b1111011 &
#1330
0!
0'
#1335
1!
1'
b1111100 ,
b1111100 &
#1340
0!
0'
#1345
1!
1'
b1111101 ,
b1111101 &
#1350
0!
0'
#1355
1!
1'
b1111110 ,
b1111110 &
#1360
0!
0'
#1365
1!
1'
b1111111 ,
b1111111 &
#1370
1$
0!
0'
1*
#1375
1!
1'
b1111101 ,
b1111101 &
#1380
0#
0$
0!
0'
0*
0)
#1385
1!
1'
b1111100 ,
b1111100 &
#1390
0!
0'
#1395
1!
1'
b1111011 ,
b1111011 &
#1400
0!
0'
#1405
1!
1'
b1111010 ,
b1111010 &
#1410
0!
0'
#1415
1!
1'
b1111001 ,
b1111001 &
#1420
0!
0'
#1425
1!
1'
b1111000 ,
b1111000 &
#1430
0!
0'
#1435
1!
1'
b1110111 ,
b1110111 &
#1440
0!
0'
#1445
1!
1'
b1110110 ,
b1110110 &
#1450
1#
0!
0'
1)
#1455
1!
1'
b1110111 ,
b1110111 &
#1460
0!
0'
#1465
1!
1'
b1111000 ,
b1111000 &
#1470
0!
0'
#1475
1!
1'
b1111001 ,
b1111001 &
#1480
1$
0!
0'
1*
#1485
1!
1'
b1111101 ,
b1111101 &
#1490
0$
0!
0'
0*
#1495
1!
1'
b1111110 ,
b1111110 &
#1500
0!
0'
#1505
1!
1'
b1111111 ,
b1111111 &
#1510
0!
0'
#1515
1!
1'
b10000000 ,
b10000000 &
#1520
0#
0!
0'
0)
#1525
1!
1'
b1111111 ,
b1111111 &
#1530
0!
0'
#1535
1!
1'
b1111110 ,
b1111110 &
#1540
0!
0'
#1545
1!
1'
b1111101 ,
b1111101 &
#1550
0!
0'
#1555
1!
1'
b1111100 ,
b1111100 &
#1560
0!
0'
#1565
1!
1'
b1111011 ,
b1111011 &
#1570
0!
0'
#1575
1!
1'
b1111010 ,
b1111010 &
#1580
0!
0'
#1585
1!
1'
b1111001 ,
b1111001 &
#1590
1$
1#
0!
0'
1)
1*
#1595
1!
1'
b1111101 ,
b1111101 &
#1600
0$
0!
0'
0*
#1605
1!
1'
b1111110 ,
b1111110 &
#1610
0!
0'
#1615
1!
1'
b1111111 ,
b1111111 &
#1620
0!
0'
#1625
1!
1'
b10000000 ,
b10000000 &
#1630
0!
0'
#1635
1!
1'
b10000001 ,
b10000001 &
#1640
0!
0'
#1645
1!
1'
b10000010 ,
b10000010 &
#1650
0!
0'
#1655
1!
1'
b10000011 ,
b10000011 &
#1660
0#
0!
0'
0)
#1665
1!
1'
b10000010 ,
b10000010 &
#1670
0!
0'
#1675
1!
1'
b10000001 ,
b10000001 &
#1680
0!
0'
#1685
1!
1'
b10000000 ,
b10000000 &
#1690
0!
0'
#1695
1!
1'
b1111111 ,
b1111111 &
#1700
1$
0!
0'
1*
#1705
1!
1'
b1111101 ,
b1111101 &
#1710
0$
0!
0'
0*
#1715
1!
1'
b1111100 ,
b1111100 &
#1720
0!
0'
#1725
1!
1'
b1111011 ,
b1111011 &
#1730
1#
0!
0'
1)
#1735
1!
1'
b1111100 ,
b1111100 &
#1740
0!
0'
#1745
1!
1'
b1111101 ,
b1111101 &
#1750
0!
0'
#1755
1!
1'
b1111110 ,
b1111110 &
#1760
0!
0'
#1765
1!
1'
b1111111 ,
b1111111 &
#1770
0!
0'
#1775
1!
1'
b10000000 ,
b10000000 &
#1780
0!
0'
#1785
1!
1'
b10000001 ,
b10000001 &
#1790
0!
0'
#1795
1!
1'
b10000010 ,
b10000010 &
#1800
0#
0!
0'
0)
#1805
1!
1'
b10000001 ,
b10000001 &
#1810
1$
0!
0'
1*
#1815
1!
1'
b1111101 ,
b1111101 &
#1820
0$
0!
0'
0*
#1825
1!
1'
b1111100 ,
b1111100 &
#1830
0!
0'
#1835
1!
1'
b1111011 ,
b1111011 &
#1840
0!
0'
#1845
1!
1'
b1111010 ,
b1111010 &
#1850
0!
0'
#1855
1!
1'
b1111001 ,
b1111001 &
#1860
0!
0'
#1865
1!
1'
b1111000 ,
b1111000 &
#1870
1#
0!
0'
1)
#1875
1!
1'
b1111001 ,
b1111001 &
#1880
0!
0'
#1885
1!
1'
b1111010 ,
b1111010 &
#1890
0!
0'
#1895
1!
1'
b1111011 ,
b1111011 &
#1900
0!
0'
#1905
1!
1'
b1111100 ,
b1111100 &
#1910
0!
0'
#1915
1!
1'
b1111101 ,
b1111101 &
#1920
1$
0!
0'
1*
#1925
1!
1'
#1930
0$
0!
0'
0*
#1935
1!
1'
b1111110 ,
b1111110 &
#1940
0#
0!
0'
0)
#1945
1!
1'
b1111101 ,
b1111101 &
#1950
0!
0'
#1955
1!
1'
b1111100 ,
b1111100 &
#1960
0!
0'
#1965
1!
1'
b1111011 ,
b1111011 &
#1970
0!
0'
#1975
1!
1'
b1111010 ,
b1111010 &
#1980
0!
0'
#1985
1!
1'
b1111001 ,
b1111001 &
#1990
0!
0'
#1995
1!
1'
b1111000 ,
b1111000 &
#2000
0!
0'
#2005
1!
1'
b1110111 ,
b1110111 &
#2010
1#
0!
0'
1)
#2015
1!
1'
b1111000 ,
b1111000 &
#2020
0!
0'
#2025
1!
1'
b1111001 ,
b1111001 &
#2030
1$
0!
0'
1*
#2035
1!
1'
b1111101 ,
b1111101 &
#2040
0$
0!
0'
0*
#2045
1!
1'
b1111110 ,
b1111110 &
#2050
0!
0'
#2055
1!
1'
b1111111 ,
b1111111 &
#2060
0!
0'
#2065
1!
1'
b10000000 ,
b10000000 &
#2070
0!
0'
#2075
1!
1'
b10000001 ,
b10000001 &
#2080
0#
0!
0'
0)
#2085
1!
1'
b10000000 ,
b10000000 &
#2090
0!
0'
#2095
1!
1'
b1111111 ,
b1111111 &
#2100
0!
0'
#2105
1!
1'
b1111110 ,
b1111110 &
#2110
0!
0'
#2115
1!
1'
b1111101 ,
b1111101 &
#2120
0!
0'
#2125
1!
1'
b1111100 ,
b1111100 &
#2130
0!
0'
#2135
1!
1'
b1111011 ,
b1111011 &
#2140
1$
0!
0'
1*
#2145
1!
1'
b1111101 ,
b1111101 &
#2150
1#
0$
0!
0'
0*
1)
#2155
1!
1'
b1111110 ,
b1111110 &
#2160
0!
0'
#2165
1!
1'
b1111111 ,
b1111111 &
#2170
0!
0'
#2175
1!
1'
b10000000 ,
b10000000 &
#2180
0!
0'
#2185
1!
1'
b10000001 ,
b10000001 &
